// Jest Snapshot v1, https://goo.gl/fbAQLP

exports[`renders correctly 1`] = `
<div
  className="container"
>
  <div
    className="row"
  >
    <div
      className="col-md-4 col-12"
    >
      <div
        className="search-container search-container d-flex justify-content-between align-items-center"
      >
        <div
          className="MuiInputBase-root makeStyles-input-2"
          onClick={[Function]}
        >
          <input
            aria-label="Hotel Name"
            className="MuiInputBase-input"
            onAnimationStart={[Function]}
            onBlur={[Function]}
            onChange={[Function]}
            onFocus={[Function]}
            placeholder="Hotel Name"
            type="text"
          />
        </div>
        <button
          aria-label="search"
          className="MuiButtonBase-root MuiIconButton-root makeStyles-iconButton-3"
          disabled={false}
          onBlur={[Function]}
          onDragLeave={[Function]}
          onFocus={[Function]}
          onKeyDown={[Function]}
          onKeyUp={[Function]}
          onMouseDown={[Function]}
          onMouseLeave={[Function]}
          onMouseUp={[Function]}
          onTouchEnd={[Function]}
          onTouchMove={[Function]}
          onTouchStart={[Function]}
          tabIndex={0}
          type="submit"
        >
          <span
            className="MuiIconButton-label"
          >
            <svg
              aria-hidden={true}
              className="MuiSvgIcon-root"
              focusable="false"
              viewBox="0 0 24 24"
            >
              <path
                d="M15.5 14h-.79l-.28-.27C15.41 12.59 16 11.11 16 9.5 16 5.91 13.09 3 9.5 3S3 5.91 3 9.5 5.91 16 9.5 16c1.61 0 3.09-.59 4.23-1.57l.27.28v.79l5 4.99L20.49 19l-4.99-5zm-6 0C7.01 14 5 11.99 5 9.5S7.01 5 9.5 5 14 7.01 14 9.5 11.99 14 9.5 14z"
              />
            </svg>
          </span>
        </button>
      </div>
      <div
        className="makeStyles-root-4"
      >
        <p
          className="MuiTypography-root MuiTypography-body1 MuiTypography-gutterBottom"
          id="range-slider"
        >
          Price
        </p>
        <span
          className="MuiSlider-root MuiSlider-colorPrimary"
          onMouseDown={[Function]}
        >
          <span
            className="MuiSlider-rail"
          />
          <span
            className="MuiSlider-track"
            style={
              Object {
                "left": "0%",
                "width": "100%",
              }
            }
          />
          <input
            type="hidden"
            value="0,600"
          />
          <span
            aria-labelledby="range-slider"
            aria-orientation="horizontal"
            aria-valuemax={600}
            aria-valuemin={0}
            aria-valuenow={0}
            aria-valuetext="0"
            className="MuiSlider-thumb MuiSlider-thumbColorPrimary PrivateValueLabel-thumb-5"
            data-index={0}
            onBlur={[Function]}
            onFocus={[Function]}
            onKeyDown={[Function]}
            onMouseLeave={[Function]}
            onMouseOver={[Function]}
            role="slider"
            style={
              Object {
                "left": "0%",
              }
            }
            tabIndex={0}
          >
            <span
              className="PrivateValueLabel-offset-7 MuiSlider-valueLabel"
            >
              <span
                className="PrivateValueLabel-circle-8"
              >
                <span
                  className="PrivateValueLabel-label-9"
                >
                  0
                </span>
              </span>
            </span>
          </span>
          <span
            aria-labelledby="range-slider"
            aria-orientation="horizontal"
            aria-valuemax={600}
            aria-valuemin={0}
            aria-valuenow={600}
            aria-valuetext="600"
            className="MuiSlider-thumb MuiSlider-thumbColorPrimary PrivateValueLabel-thumb-5"
            data-index={1}
            onBlur={[Function]}
            onFocus={[Function]}
            onKeyDown={[Function]}
            onMouseLeave={[Function]}
            onMouseOver={[Function]}
            role="slider"
            style={
              Object {
                "left": "100%",
              }
            }
            tabIndex={0}
          >
            <span
              className="PrivateValueLabel-offset-7 MuiSlider-valueLabel"
            >
              <span
                className="PrivateValueLabel-circle-8"
              >
                <span
                  className="PrivateValueLabel-label-9"
                >
                  600
                </span>
              </span>
            </span>
          </span>
        </span>
      </div>
    </div>
    <div
      className="col-md-8 col-12 pt-3"
    >
      <div
        className="row d-flex justify-content-between align-items-center"
      >
        <div
          className="col-md-6 col-12"
        >
          <h3>
            Total Nights:
            0
          </h3>
        </div>
        <div
          className="col-md-6 col-12 d-flex justify-content-around align-items-center"
        >
          <button
            className="MuiButtonBase-root MuiButton-root MuiButton-outlined makeStyles-button-1 MuiButton-outlinedPrimary"
            disabled={false}
            onBlur={[Function]}
            onClick={[Function]}
            onDragLeave={[Function]}
            onFocus={[Function]}
            onKeyDown={[Function]}
            onKeyUp={[Function]}
            onMouseDown={[Function]}
            onMouseLeave={[Function]}
            onMouseUp={[Function]}
            onTouchEnd={[Function]}
            onTouchMove={[Function]}
            onTouchStart={[Function]}
            tabIndex={0}
            type="button"
          >
            <span
              className="MuiButton-label"
            >
              Sort By Name
            </span>
          </button>
          <button
            className="MuiButtonBase-root MuiButton-root MuiButton-outlined makeStyles-button-1 MuiButton-outlinedPrimary"
            disabled={false}
            onBlur={[Function]}
            onClick={[Function]}
            onDragLeave={[Function]}
            onFocus={[Function]}
            onKeyDown={[Function]}
            onKeyUp={[Function]}
            onMouseDown={[Function]}
            onMouseLeave={[Function]}
            onMouseUp={[Function]}
            onTouchEnd={[Function]}
            onTouchMove={[Function]}
            onTouchStart={[Function]}
            tabIndex={0}
            type="button"
          >
            <span
              className="MuiButton-label"
            >
              Sort By Price
            </span>
          </button>
        </div>
      </div>
      <div
        className="row"
      />
    </div>
  </div>
</div>
`;
